%YAML 1.1
%TAG !u! tag:unity3d.com,2011:
--- !u!29 &1
OcclusionCullingSettings:
  m_ObjectHideFlags: 0
  serializedVersion: 2
  m_OcclusionBakeSettings:
    smallestOccluder: 5
    smallestHole: 0.25
    backfaceThreshold: 100
  m_SceneGUID: 00000000000000000000000000000000
  m_OcclusionCullingData: {fileID: 0}
--- !u!104 &2
RenderSettings:
  m_ObjectHideFlags: 0
  serializedVersion: 9
  m_Fog: 0
  m_FogColor: {r: 0.5, g: 0.5, b: 0.5, a: 1}
  m_FogMode: 3
  m_FogDensity: 0.01
  m_LinearFogStart: 0
  m_LinearFogEnd: 300
  m_AmbientSkyColor: {r: 0.212, g: 0.227, b: 0.259, a: 1}
  m_AmbientEquatorColor: {r: 0.114, g: 0.125, b: 0.133, a: 1}
  m_AmbientGroundColor: {r: 0.047, g: 0.043, b: 0.035, a: 1}
  m_AmbientIntensity: 1
  m_AmbientMode: 0
  m_SubtractiveShadowColor: {r: 0.42, g: 0.478, b: 0.627, a: 1}
  m_SkyboxMaterial: {fileID: 10304, guid: 0000000000000000f000000000000000, type: 0}
  m_HaloStrength: 0.5
  m_FlareStrength: 1
  m_FlareFadeSpeed: 3
  m_HaloTexture: {fileID: 0}
  m_SpotCookie: {fileID: 10001, guid: 0000000000000000e000000000000000, type: 0}
  m_DefaultReflectionMode: 0
  m_DefaultReflectionResolution: 128
  m_ReflectionBounces: 1
  m_ReflectionIntensity: 1
  m_CustomReflection: {fileID: 0}
  m_Sun: {fileID: 0}
  m_IndirectSpecularColor: {r: 0.44657844, g: 0.49641222, b: 0.57481694, a: 1}
  m_UseRadianceAmbientProbe: 0
--- !u!157 &3
LightmapSettings:
  m_ObjectHideFlags: 0
  serializedVersion: 11
  m_GIWorkflowMode: 0
  m_GISettings:
    serializedVersion: 2
    m_BounceScale: 1
    m_IndirectOutputScale: 1
    m_AlbedoBoost: 1
    m_EnvironmentLightingMode: 0
    m_EnableBakedLightmaps: 1
    m_EnableRealtimeLightmaps: 1
  m_LightmapEditorSettings:
    serializedVersion: 10
    m_Resolution: 2
    m_BakeResolution: 40
    m_AtlasSize: 1024
    m_AO: 0
    m_AOMaxDistance: 5
    m_CompAOExponent: 1
    m_CompAOExponentDirect: 4.7
    m_Padding: 2
    m_LightmapParameters: {fileID: 0}
    m_LightmapsBakeMode: 1
    m_TextureCompression: 1
    m_FinalGather: 0
    m_FinalGatherFiltering: 1
    m_FinalGatherRayCount: 256
    m_ReflectionCompression: 2
    m_MixedBakeMode: 1
    m_BakeBackend: 0
    m_PVRSampling: 1
    m_PVRDirectSampleCount: 32
    m_PVRSampleCount: 500
    m_PVRBounces: 2
    m_PVRFilterTypeDirect: 0
    m_PVRFilterTypeIndirect: 0
    m_PVRFilterTypeAO: 0
    m_PVRFilteringMode: 0
    m_PVRCulling: 1
    m_PVRFilteringGaussRadiusDirect: 1
    m_PVRFilteringGaussRadiusIndirect: 5
    m_PVRFilteringGaussRadiusAO: 2
    m_PVRFilteringAtrousPositionSigmaDirect: 0.5
    m_PVRFilteringAtrousPositionSigmaIndirect: 2
    m_PVRFilteringAtrousPositionSigmaAO: 1
    m_ShowResolutionOverlay: 1
  m_LightingDataAsset: {fileID: 112000001, guid: c3a659cfccd88e2458180126b072e0f6,
    type: 2}
  m_UseShadowmask: 0
--- !u!196 &4
NavMeshSettings:
  serializedVersion: 2
  m_ObjectHideFlags: 0
  m_BuildSettings:
    serializedVersion: 2
    agentTypeID: 0
    agentRadius: 0.5
    agentHeight: 2
    agentSlope: 45
    agentClimb: 0.4
    ledgeDropHeight: 0
    maxJumpAcrossDistance: 0
    minRegionArea: 2
    manualCellSize: 0
    cellSize: 0.16666667
    manualTileSize: 0
    tileSize: 256
    accuratePlacement: 0
    debug:
      m_Flags: 0
  m_NavMeshData: {fileID: 0}
--- !u!1 &22151764
GameObject:
  m_ObjectHideFlags: 0
  m_CorrespondingSourceObject: {fileID: 0}
  m_PrefabInstance: {fileID: 0}
  m_PrefabAsset: {fileID: 0}
  serializedVersion: 6
  m_Component:
  - component: {fileID: 22151768}
  - component: {fileID: 22151767}
  - component: {fileID: 22151766}
  - component: {fileID: 22151765}
  m_Layer: 0
  m_Name: Wall
  m_TagString: Untagged
  m_Icon: {fileID: 0}
  m_NavMeshLayer: 0
  m_StaticEditorFlags: 0
  m_IsActive: 1
--- !u!23 &22151765
MeshRenderer:
  m_ObjectHideFlags: 0
  m_CorrespondingSourceObject: {fileID: 0}
  m_PrefabInstance: {fileID: 0}
  m_PrefabAsset: {fileID: 0}
  m_GameObject: {fileID: 22151764}
  m_Enabled: 1
  m_CastShadows: 0
  m_ReceiveShadows: 1
  m_DynamicOccludee: 1
  m_MotionVectors: 1
  m_LightProbeUsage: 1
  m_ReflectionProbeUsage: 1
  m_RenderingLayerMask: 1
  m_RendererPriority: 0
  m_Materials:
  - {fileID: 10303, guid: 0000000000000000f000000000000000, type: 0}
  m_StaticBatchInfo:
    firstSubMesh: 0
    subMeshCount: 0
  m_StaticBatchRoot: {fileID: 0}
  m_ProbeAnchor: {fileID: 0}
  m_LightProbeVolumeOverride: {fileID: 0}
  m_ScaleInLightmap: 1
  m_PreserveUVs: 1
  m_IgnoreNormalsForChartDetection: 0
  m_ImportantGI: 0
  m_StitchLightmapSeams: 0
  m_SelectedEditorRenderState: 3
  m_MinimumChartSize: 4
  m_AutoUVMaxDistance: 0.5
  m_AutoUVMaxAngle: 89
  m_LightmapParameters: {fileID: 0}
  m_SortingLayerID: 0
  m_SortingLayer: 0
  m_SortingOrder: 0
--- !u!65 &22151766
BoxCollider:
  m_ObjectHideFlags: 0
  m_CorrespondingSourceObject: {fileID: 0}
  m_PrefabInstance: {fileID: 0}
  m_PrefabAsset: {fileID: 0}
  m_GameObject: {fileID: 22151764}
  m_Material: {fileID: 0}
  m_IsTrigger: 0
  m_Enabled: 1
  serializedVersion: 2
  m_Size: {x: 1, y: 1, z: 1}
  m_Center: {x: 0, y: 0, z: 0}
--- !u!33 &22151767
MeshFilter:
  m_ObjectHideFlags: 0
  m_CorrespondingSourceObject: {fileID: 0}
  m_PrefabInstance: {fileID: 0}
  m_PrefabAsset: {fileID: 0}
  m_GameObject: {fileID: 22151764}
  m_Mesh: {fileID: 10202, guid: 0000000000000000e000000000000000, type: 0}
--- !u!4 &22151768
Transform:
  m_ObjectHideFlags: 0
  m_CorrespondingSourceObject: {fileID: 0}
  m_PrefabInstance: {fileID: 0}
  m_PrefabAsset: {fileID: 0}
  m_GameObject: {fileID: 22151764}
  m_LocalRotation: {x: 0, y: 0, z: 0, w: 1}
  m_LocalPosition: {x: 0.37, y: 1, z: 11.49}
  m_LocalScale: {x: 38.5, y: 8, z: 0.52499956}
  m_Children: []
  m_Father: {fileID: 0}
  m_RootOrder: 30
  m_LocalEulerAnglesHint: {x: 0, y: 0, z: 0}
--- !u!1 &161856905
GameObject:
  m_ObjectHideFlags: 0
  m_CorrespondingSourceObject: {fileID: 0}
  m_PrefabInstance: {fileID: 0}
  m_PrefabAsset: {fileID: 0}
  serializedVersion: 6
  m_Component:
  - component: {fileID: 161856909}
  - component: {fileID: 161856908}
  - component: {fileID: 161856907}
  - component: {fileID: 161856906}
  m_Layer: 0
  m_Name: Wall
  m_TagString: Untagged
  m_Icon: {fileID: 0}
  m_NavMeshLayer: 0
  m_StaticEditorFlags: 0
  m_IsActive: 1
--- !u!23 &161856906
MeshRenderer:
  m_ObjectHideFlags: 0
  m_CorrespondingSourceObject: {fileID: 0}
  m_PrefabInstance: {fileID: 0}
  m_PrefabAsset: {fileID: 0}
  m_GameObject: {fileID: 161856905}
  m_Enabled: 1
  m_CastShadows: 0
  m_ReceiveShadows: 1
  m_DynamicOccludee: 1
  m_MotionVectors: 1
  m_LightProbeUsage: 1
  m_ReflectionProbeUsage: 1
  m_RenderingLayerMask: 1
  m_RendererPriority: 0
  m_Materials:
  - {fileID: 10303, guid: 0000000000000000f000000000000000, type: 0}
  m_StaticBatchInfo:
    firstSubMesh: 0
    subMeshCount: 0
  m_StaticBatchRoot: {fileID: 0}
  m_ProbeAnchor: {fileID: 0}
  m_LightProbeVolumeOverride: {fileID: 0}
  m_ScaleInLightmap: 1
  m_PreserveUVs: 1
  m_IgnoreNormalsForChartDetection: 0
  m_ImportantGI: 0
  m_StitchLightmapSeams: 0
  m_SelectedEditorRenderState: 3
  m_MinimumChartSize: 4
  m_AutoUVMaxDistance: 0.5
  m_AutoUVMaxAngle: 89
  m_LightmapParameters: {fileID: 0}
  m_SortingLayerID: 0
  m_SortingLayer: 0
  m_SortingOrder: 0
--- !u!65 &161856907
BoxCollider:
  m_ObjectHideFlags: 0
  m_CorrespondingSourceObject: {fileID: 0}
  m_PrefabInstance: {fileID: 0}
  m_PrefabAsset: {fileID: 0}
  m_GameObject: {fileID: 161856905}
  m_Material: {fileID: 0}
  m_IsTrigger: 0
  m_Enabled: 1
  serializedVersion: 2
  m_Size: {x: 1, y: 1, z: 1}
  m_Center: {x: 0, y: 0, z: 0}
--- !u!33 &161856908
MeshFilter:
  m_ObjectHideFlags: 0
  m_CorrespondingSourceObject: {fileID: 0}
  m_PrefabInstance: {fileID: 0}
  m_PrefabAsset: {fileID: 0}
  m_GameObject: {fileID: 161856905}
  m_Mesh: {fileID: 10202, guid: 0000000000000000e000000000000000, type: 0}
--- !u!4 &161856909
Transform:
  m_ObjectHideFlags: 0
  m_CorrespondingSourceObject: {fileID: 0}
  m_PrefabInstance: {fileID: 0}
  m_PrefabAsset: {fileID: 0}
  m_GameObject: {fileID: 161856905}
  m_LocalRotation: {x: 0, y: 0.7071068, z: 0, w: 0.7071068}
  m_LocalPosition: {x: 19.34, y: 1, z: -8.76}
  m_LocalScale: {x: 40, y: 8, z: 0.52499956}
  m_Children: []
  m_Father: {fileID: 0}
  m_RootOrder: 32
  m_LocalEulerAnglesHint: {x: 0, y: 90, z: 0}
--- !u!1001 &309088737
PrefabInstance:
  m_ObjectHideFlags: 0
  serializedVersion: 2
  m_Modification:
    m_TransformParent: {fileID: 0}
    m_Modifications:
    - target: {fileID: 4000010920743216, guid: 7841159c855bb0d44bcc9f1f89548d64, type: 3}
      propertyPath: m_LocalPosition.x
      value: -6.73
      objectReference: {fileID: 0}
    - target: {fileID: 4000010920743216, guid: 7841159c855bb0d44bcc9f1f89548d64, type: 3}
      propertyPath: m_LocalPosition.y
      value: 2
      objectReference: {fileID: 0}
    - target: {fileID: 4000010920743216, guid: 7841159c855bb0d44bcc9f1f89548d64, type: 3}
      propertyPath: m_LocalPosition.z
      value: -21.71
      objectReference: {fileID: 0}
    - target: {fileID: 4000010920743216, guid: 7841159c855bb0d44bcc9f1f89548d64, type: 3}
      propertyPath: m_LocalRotation.x
      value: 0
      objectReference: {fileID: 0}
    - target: {fileID: 4000010920743216, guid: 7841159c855bb0d44bcc9f1f89548d64, type: 3}
      propertyPath: m_LocalRotation.y
      value: 0
      objectReference: {fileID: 0}
    - target: {fileID: 4000010920743216, guid: 7841159c855bb0d44bcc9f1f89548d64, type: 3}
      propertyPath: m_LocalRotation.z
      value: 0
      objectReference: {fileID: 0}
    - target: {fileID: 4000010920743216, guid: 7841159c855bb0d44bcc9f1f89548d64, type: 3}
      propertyPath: m_LocalRotation.w
      value: 1
      objectReference: {fileID: 0}
    - target: {fileID: 4000010920743216, guid: 7841159c855bb0d44bcc9f1f89548d64, type: 3}
      propertyPath: m_RootOrder
      value: 15
      objectReference: {fileID: 0}
    m_RemovedComponents: []
  m_SourcePrefab: {fileID: 100100000, guid: 7841159c855bb0d44bcc9f1f89548d64, type: 3}
--- !u!1001 &316846568
PrefabInstance:
  m_ObjectHideFlags: 0
  serializedVersion: 2
  m_Modification:
    m_TransformParent: {fileID: 0}
    m_Modifications:
    - target: {fileID: 4000011797276446, guid: 3dcb1df6c82dde44f9dac4ef0ed2b1f4, type: 3}
      propertyPath: m_LocalPosition.x
      value: -10
      objectReference: {fileID: 0}
    - target: {fileID: 4000011797276446, guid: 3dcb1df6c82dde44f9dac4ef0ed2b1f4, type: 3}
      propertyPath: m_LocalPosition.y
      value: 1.72
      objectReference: {fileID: 0}
    - target: {fileID: 4000011797276446, guid: 3dcb1df6c82dde44f9dac4ef0ed2b1f4, type: 3}
      propertyPath: m_LocalPosition.z
      value: 10
      objectReference: {fileID: 0}
    - target: {fileID: 4000011797276446, guid: 3dcb1df6c82dde44f9dac4ef0ed2b1f4, type: 3}
      propertyPath: m_LocalRotation.x
      value: 0
      objectReference: {fileID: 0}
    - target: {fileID: 4000011797276446, guid: 3dcb1df6c82dde44f9dac4ef0ed2b1f4, type: 3}
      propertyPath: m_LocalRotation.y
      value: 1
      objectReference: {fileID: 0}
    - target: {fileID: 4000011797276446, guid: 3dcb1df6c82dde44f9dac4ef0ed2b1f4, type: 3}
      propertyPath: m_LocalRotation.z
      value: 0
      objectReference: {fileID: 0}
    - target: {fileID: 4000011797276446, guid: 3dcb1df6c82dde44f9dac4ef0ed2b1f4, type: 3}
      propertyPath: m_LocalRotation.w
      value: 0
      objectReference: {fileID: 0}
    - target: {fileID: 4000011797276446, guid: 3dcb1df6c82dde44f9dac4ef0ed2b1f4, type: 3}
      propertyPath: m_RootOrder
      value: 3
      objectReference: {fileID: 0}
    m_RemovedComponents: []
  m_SourcePrefab: {fileID: 100100000, guid: 3dcb1df6c82dde44f9dac4ef0ed2b1f4, type: 3}
--- !u!1001 &386468767
PrefabInstance:
  m_ObjectHideFlags: 0
  serializedVersion: 2
  m_Modification:
    m_TransformParent: {fileID: 0}
    m_Modifications:
    - target: {fileID: 4000010843767580, guid: c34cb3bdef7a4304dbaea59504e23078, type: 3}
      propertyPath: m_LocalPosition.x
      value: 6.17
      objectReference: {fileID: 0}
    - target: {fileID: 4000010843767580, guid: c34cb3bdef7a4304dbaea59504e23078, type: 3}
      propertyPath: m_LocalPosition.y
      value: 1.94
      objectReference: {fileID: 0}
    - target: {fileID: 4000010843767580, guid: c34cb3bdef7a4304dbaea59504e23078, type: 3}
      propertyPath: m_LocalPosition.z
      value: -17.83
      objectReference: {fileID: 0}
    - target: {fileID: 4000010843767580, guid: c34cb3bdef7a4304dbaea59504e23078, type: 3}
      propertyPath: m_LocalRotation.x
      value: 0
      objectReference: {fileID: 0}
    - target: {fileID: 4000010843767580, guid: c34cb3bdef7a4304dbaea59504e23078, type: 3}
      propertyPath: m_LocalRotation.y
      value: 1
      objectReference: {fileID: 0}
    - target: {fileID: 4000010843767580, guid: c34cb3bdef7a4304dbaea59504e23078, type: 3}
      propertyPath: m_LocalRotation.z
      value: 0
      objectReference: {fileID: 0}
    - target: {fileID: 4000010843767580, guid: c34cb3bdef7a4304dbaea59504e23078, type: 3}
      propertyPath: m_LocalRotation.w
      value: 0
      objectReference: {fileID: 0}
    - target: {fileID: 4000010843767580, guid: c34cb3bdef7a4304dbaea59504e23078, type: 3}
      propertyPath: m_RootOrder
      value: 22
      objectReference: {fileID: 0}
    m_RemovedComponents: []
  m_SourcePrefab: {fileID: 100100000, guid: c34cb3bdef7a4304dbaea59504e23078, type: 3}
--- !u!1001 &397743801
PrefabInstance:
  m_ObjectHideFlags: 0
  serializedVersion: 2
  m_Modification:
    m_TransformParent: {fileID: 0}
    m_Modifications:
    - target: {fileID: 1000012081721328, guid: 6a820aef5b4bbe449826505731f23459, type: 3}
      propertyPath: m_Name
      value: Trash
      objectReference: {fileID: 0}
    - target: {fileID: 4000013191001076, guid: 6a820aef5b4bbe449826505731f23459, type: 3}
      propertyPath: m_LocalPosition.x
      value: 2.96
      objectReference: {fileID: 0}
    - target: {fileID: 4000013191001076, guid: 6a820aef5b4bbe449826505731f23459, type: 3}
      propertyPath: m_LocalPosition.y
      value: -0.094
      objectReference: {fileID: 0}
    - target: {fileID: 4000013191001076, guid: 6a820aef5b4bbe449826505731f23459, type: 3}
      propertyPath: m_LocalPosition.z
      value: -1.3
      objectReference: {fileID: 0}
    - target: {fileID: 4000013191001076, guid: 6a820aef5b4bbe449826505731f23459, type: 3}
      propertyPath: m_LocalRotation.x
      value: 0
      objectReference: {fileID: 0}
    - target: {fileID: 4000013191001076, guid: 6a820aef5b4bbe449826505731f23459, type: 3}
      propertyPath: m_LocalRotation.y
      value: 0.8314698
      objectReference: {fileID: 0}
    - target: {fileID: 4000013191001076, guid: 6a820aef5b4bbe449826505731f23459, type: 3}
      propertyPath: m_LocalRotation.z
      value: -0
      objectReference: {fileID: 0}
    - target: {fileID: 4000013191001076, guid: 6a820aef5b4bbe449826505731f23459, type: 3}
      propertyPath: m_LocalRotation.w
      value: -0.55557
      objectReference: {fileID: 0}
    - target: {fileID: 4000013191001076, guid: 6a820aef5b4bbe449826505731f23459, type: 3}
      propertyPath: m_RootOrder
      value: 9
      objectReference: {fileID: 0}
    m_RemovedComponents: []
  m_SourcePrefab: {fileID: 100100000, guid: 6a820aef5b4bbe449826505731f23459, type: 3}
--- !u!1 &524143964
GameObject:
  m_ObjectHideFlags: 0
  m_CorrespondingSourceObject: {fileID: 0}
  m_PrefabInstance: {fileID: 0}
  m_PrefabAsset: {fileID: 0}
  serializedVersion: 6
  m_Component:
  - component: {fileID: 524143968}
  - component: {fileID: 524143967}
  - component: {fileID: 524143966}
  - component: {fileID: 524143965}
  m_Layer: 0
  m_Name: Wall
  m_TagString: Untagged
  m_Icon: {fileID: 0}
  m_NavMeshLayer: 0
  m_StaticEditorFlags: 0
  m_IsActive: 1
--- !u!23 &524143965
MeshRenderer:
  m_ObjectHideFlags: 0
  m_CorrespondingSourceObject: {fileID: 0}
  m_PrefabInstance: {fileID: 0}
  m_PrefabAsset: {fileID: 0}
  m_GameObject: {fileID: 524143964}
  m_Enabled: 1
  m_CastShadows: 0
  m_ReceiveShadows: 1
  m_DynamicOccludee: 1
  m_MotionVectors: 1
  m_LightProbeUsage: 1
  m_ReflectionProbeUsage: 1
  m_RenderingLayerMask: 1
  m_RendererPriority: 0
  m_Materials:
  - {fileID: 10303, guid: 0000000000000000f000000000000000, type: 0}
  m_StaticBatchInfo:
    firstSubMesh: 0
    subMeshCount: 0
  m_StaticBatchRoot: {fileID: 0}
  m_ProbeAnchor: {fileID: 0}
  m_LightProbeVolumeOverride: {fileID: 0}
  m_ScaleInLightmap: 1
  m_PreserveUVs: 1
  m_IgnoreNormalsForChartDetection: 0
  m_ImportantGI: 0
  m_StitchLightmapSeams: 0
  m_SelectedEditorRenderState: 3
  m_MinimumChartSize: 4
  m_AutoUVMaxDistance: 0.5
  m_AutoUVMaxAngle: 89
  m_LightmapParameters: {fileID: 0}
  m_SortingLayerID: 0
  m_SortingLayer: 0
  m_SortingOrder: 0
--- !u!65 &524143966
BoxCollider:
  m_ObjectHideFlags: 0
  m_CorrespondingSourceObject: {fileID: 0}
  m_PrefabInstance: {fileID: 0}
  m_PrefabAsset: {fileID: 0}
  m_GameObject: {fileID: 524143964}
  m_Material: {fileID: 0}
  m_IsTrigger: 0
  m_Enabled: 1
  serializedVersion: 2
  m_Size: {x: 1, y: 1, z: 1}
  m_Center: {x: 0, y: 0, z: 0}
--- !u!33 &524143967
MeshFilter:
  m_ObjectHideFlags: 0
  m_CorrespondingSourceObject: {fileID: 0}
  m_PrefabInstance: {fileID: 0}
  m_PrefabAsset: {fileID: 0}
  m_GameObject: {fileID: 524143964}
  m_Mesh: {fileID: 10202, guid: 0000000000000000e000000000000000, type: 0}
--- !u!4 &524143968
Transform:
  m_ObjectHideFlags: 0
  m_CorrespondingSourceObject: {fileID: 0}
  m_PrefabInstance: {fileID: 0}
  m_PrefabAsset: {fileID: 0}
  m_GameObject: {fileID: 524143964}
  m_LocalRotation: {x: 0, y: 0, z: 0, w: 1}
  m_LocalPosition: {x: 0.58, y: 1, z: -28.9}
  m_LocalScale: {x: 38.5, y: 8, z: 0.52499956}
  m_Children: []
  m_Father: {fileID: 0}
  m_RootOrder: 35
  m_LocalEulerAnglesHint: {x: 0, y: 0, z: 0}
--- !u!1001 &585005267
PrefabInstance:
  m_ObjectHideFlags: 0
  serializedVersion: 2
  m_Modification:
    m_TransformParent: {fileID: 0}
    m_Modifications:
    - target: {fileID: 4000014245279604, guid: 38d0814617146db459147d50d7e8739a, type: 3}
      propertyPath: m_LocalPosition.x
      value: 17.97
      objectReference: {fileID: 0}
    - target: {fileID: 4000014245279604, guid: 38d0814617146db459147d50d7e8739a, type: 3}
      propertyPath: m_LocalPosition.y
      value: -0.07
      objectReference: {fileID: 0}
    - target: {fileID: 4000014245279604, guid: 38d0814617146db459147d50d7e8739a, type: 3}
      propertyPath: m_LocalPosition.z
      value: 8.5
      objectReference: {fileID: 0}
    - target: {fileID: 4000014245279604, guid: 38d0814617146db459147d50d7e8739a, type: 3}
      propertyPath: m_LocalRotation.x
      value: 0
      objectReference: {fileID: 0}
    - target: {fileID: 4000014245279604, guid: 38d0814617146db459147d50d7e8739a, type: 3}
      propertyPath: m_LocalRotation.y
      value: 0.7071068
      objectReference: {fileID: 0}
    - target: {fileID: 4000014245279604, guid: 38d0814617146db459147d50d7e8739a, type: 3}
      propertyPath: m_LocalRotation.z
      value: 0
      objectReference: {fileID: 0}
    - target: {fileID: 4000014245279604, guid: 38d0814617146db459147d50d7e8739a, type: 3}
      propertyPath: m_LocalRotation.w
      value: 0.7071068
      objectReference: {fileID: 0}
    - target: {fileID: 4000014245279604, guid: 38d0814617146db459147d50d7e8739a, type: 3}
      propertyPath: m_RootOrder
      value: 18
      objectReference: {fileID: 0}
    m_RemovedComponents: []
  m_SourcePrefab: {fileID: 100100000, guid: 38d0814617146db459147d50d7e8739a, type: 3}
--- !u!1001 &598549176
PrefabInstance:
  m_ObjectHideFlags: 0
  serializedVersion: 2
  m_Modification:
    m_TransformParent: {fileID: 0}
    m_Modifications:
    - target: {fileID: 4000011298121576, guid: 2fe85e6b53467fa4ab15c063fbd4d24a, type: 3}
      propertyPath: m_LocalPosition.x
      value: -5.62
      objectReference: {fileID: 0}
    - target: {fileID: 4000011298121576, guid: 2fe85e6b53467fa4ab15c063fbd4d24a, type: 3}
      propertyPath: m_LocalPosition.y
      value: 2.52
      objectReference: {fileID: 0}
    - target: {fileID: 4000011298121576, guid: 2fe85e6b53467fa4ab15c063fbd4d24a, type: 3}
      propertyPath: m_LocalPosition.z
      value: 10.35
      objectReference: {fileID: 0}
    - target: {fileID: 4000011298121576, guid: 2fe85e6b53467fa4ab15c063fbd4d24a, type: 3}
      propertyPath: m_LocalRotation.x
      value: 0
      objectReference: {fileID: 0}
    - target: {fileID: 4000011298121576, guid: 2fe85e6b53467fa4ab15c063fbd4d24a, type: 3}
      propertyPath: m_LocalRotation.y
      value: 1
      objectReference: {fileID: 0}
    - target: {fileID: 4000011298121576, guid: 2fe85e6b53467fa4ab15c063fbd4d24a, type: 3}
      propertyPath: m_LocalRotation.z
      value: 0
      objectReference: {fileID: 0}
    - target: {fileID: 4000011298121576, guid: 2fe85e6b53467fa4ab15c063fbd4d24a, type: 3}
      propertyPath: m_LocalRotation.w
      value: 0
      objectReference: {fileID: 0}
    - target: {fileID: 4000011298121576, guid: 2fe85e6b53467fa4ab15c063fbd4d24a, type: 3}
      propertyPath: m_RootOrder
      value: 7
      objectReference: {fileID: 0}
    m_RemovedComponents: []
  m_SourcePrefab: {fileID: 100100000, guid: 2fe85e6b53467fa4ab15c063fbd4d24a, type: 3}
--- !u!1001 &603682169
PrefabInstance:
  m_ObjectHideFlags: 0
  serializedVersion: 2
  m_Modification:
    m_TransformParent: {fileID: 0}
    m_Modifications:
    - target: {fileID: 4000013026240068, guid: 6d342eee9ce10d34eabfc49d8fbd2c6f, type: 3}
      propertyPath: m_LocalPosition.x
      value: 2.113
      objectReference: {fileID: 0}
    - target: {fileID: 4000013026240068, guid: 6d342eee9ce10d34eabfc49d8fbd2c6f, type: 3}
      propertyPath: m_LocalPosition.y
      value: 0.56
      objectReference: {fileID: 0}
    - target: {fileID: 4000013026240068, guid: 6d342eee9ce10d34eabfc49d8fbd2c6f, type: 3}
      propertyPath: m_LocalPosition.z
      value: 9.899
      objectReference: {fileID: 0}
    - target: {fileID: 4000013026240068, guid: 6d342eee9ce10d34eabfc49d8fbd2c6f, type: 3}
      propertyPath: m_LocalRotation.x
      value: 0
      objectReference: {fileID: 0}
    - target: {fileID: 4000013026240068, guid: 6d342eee9ce10d34eabfc49d8fbd2c6f, type: 3}
      propertyPath: m_LocalRotation.y
      value: 1
      objectReference: {fileID: 0}
    - target: {fileID: 4000013026240068, guid: 6d342eee9ce10d34eabfc49d8fbd2c6f, type: 3}
      propertyPath: m_LocalRotation.z
      value: 0
      objectReference: {fileID: 0}
    - target: {fileID: 4000013026240068, guid: 6d342eee9ce10d34eabfc49d8fbd2c6f, type: 3}
      propertyPath: m_LocalRotation.w
      value: 0
      objectReference: {fileID: 0}
    - target: {fileID: 4000013026240068, guid: 6d342eee9ce10d34eabfc49d8fbd2c6f, type: 3}
      propertyPath: m_RootOrder
      value: 5
      objectReference: {fileID: 0}
    m_RemovedComponents: []
  m_SourcePrefab: {fileID: 100100000, guid: 6d342eee9ce10d34eabfc49d8fbd2c6f, type: 3}
--- !u!1001 &709584378
PrefabInstance:
  m_ObjectHideFlags: 0
  serializedVersion: 2
  m_Modification:
    m_TransformParent: {fileID: 0}
    m_Modifications:
    - target: {fileID: 100000, guid: a2bc5fda40d1ee24ea8d96aa11802285, type: 3}
      propertyPath: m_IsActive
      value: 1
      objectReference: {fileID: 0}
    - target: {fileID: 100000, guid: a2bc5fda40d1ee24ea8d96aa11802285, type: 3}
      propertyPath: m_Name
      value: Bookshelf (1)
      objectReference: {fileID: 0}
    - target: {fileID: 400000, guid: a2bc5fda40d1ee24ea8d96aa11802285, type: 3}
      propertyPath: m_LocalPosition.x
      value: 12.53
      objectReference: {fileID: 0}
    - target: {fileID: 400000, guid: a2bc5fda40d1ee24ea8d96aa11802285, type: 3}
      propertyPath: m_LocalPosition.y
      value: 2.53
      objectReference: {fileID: 0}
    - target: {fileID: 400000, guid: a2bc5fda40d1ee24ea8d96aa11802285, type: 3}
      propertyPath: m_LocalPosition.z
      value: -6.67
      objectReference: {fileID: 0}
    - target: {fileID: 400000, guid: a2bc5fda40d1ee24ea8d96aa11802285, type: 3}
      propertyPath: m_LocalRotation.x
      value: 0
      objectReference: {fileID: 0}
    - target: {fileID: 400000, guid: a2bc5fda40d1ee24ea8d96aa11802285, type: 3}
      propertyPath: m_LocalRotation.y
      value: 1
      objectReference: {fileID: 0}
    - target: {fileID: 400000, guid: a2bc5fda40d1ee24ea8d96aa11802285, type: 3}
      propertyPath: m_LocalRotation.z
      value: 0
      objectReference: {fileID: 0}
    - target: {fileID: 400000, guid: a2bc5fda40d1ee24ea8d96aa11802285, type: 3}
      propertyPath: m_LocalRotation.w
      value: 0
      objectReference: {fileID: 0}
    - target: {fileID: 400000, guid: a2bc5fda40d1ee24ea8d96aa11802285, type: 3}
      propertyPath: m_RootOrder
      value: 29
      objectReference: {fileID: 0}
    - target: {fileID: 400000, guid: a2bc5fda40d1ee24ea8d96aa11802285, type: 3}
      propertyPath: m_LocalEulerAnglesHint.y
      value: 180
      objectReference: {fileID: 0}
    m_RemovedComponents: []
  m_SourcePrefab: {fileID: 100100000, guid: a2bc5fda40d1ee24ea8d96aa11802285, type: 3}
--- !u!1001 &755173521
PrefabInstance:
  m_ObjectHideFlags: 0
  serializedVersion: 2
  m_Modification:
    m_TransformParent: {fileID: 0}
    m_Modifications:
    - target: {fileID: 4000011760555468, guid: c90de59bff4939e4bbe4cd9324b0decc, type: 3}
      propertyPath: m_LocalPosition.x
      value: -7.49
      objectReference: {fileID: 0}
    - target: {fileID: 4000011760555468, guid: c90de59bff4939e4bbe4cd9324b0decc, type: 3}
      propertyPath: m_LocalPosition.y
      value: 0.28
      objectReference: {fileID: 0}
    - target: {fileID: 4000011760555468, guid: c90de59bff4939e4bbe4cd9324b0decc, type: 3}
      propertyPath: m_LocalPosition.z
      value: -10.63
      objectReference: {fileID: 0}
    - target: {fileID: 4000011760555468, guid: c90de59bff4939e4bbe4cd9324b0decc, type: 3}
      propertyPath: m_LocalRotation.x
      value: 0
      objectReference: {fileID: 0}
    - target: {fileID: 4000011760555468, guid: c90de59bff4939e4bbe4cd9324b0decc, type: 3}
      propertyPath: m_LocalRotation.y
      value: 1
      objectReference: {fileID: 0}
    - target: {fileID: 4000011760555468, guid: c90de59bff4939e4bbe4cd9324b0decc, type: 3}
      propertyPath: m_LocalRotation.z
      value: 0
      objectReference: {fileID: 0}
    - target: {fileID: 4000011760555468, guid: c90de59bff4939e4bbe4cd9324b0decc, type: 3}
      propertyPath: m_LocalRotation.w
      value: 0
      objectReference: {fileID: 0}
    - target: {fileID: 4000011760555468, guid: c90de59bff4939e4bbe4cd9324b0decc, type: 3}
      propertyPath: m_RootOrder
      value: 12
      objectReference: {fileID: 0}
    m_RemovedComponents: []
  m_SourcePrefab: {fileID: 100100000, guid: c90de59bff4939e4bbe4cd9324b0decc, type: 3}
--- !u!1001 &833131843
PrefabInstance:
  m_ObjectHideFlags: 0
  serializedVersion: 2
  m_Modification:
    m_TransformParent: {fileID: 0}
    m_Modifications:
    - target: {fileID: 4000011771934830, guid: 928ab05920c2fc44dafb3573d1b5fbc1, type: 3}
      propertyPath: m_LocalPosition.x
      value: 2.29
      objectReference: {fileID: 0}
    - target: {fileID: 4000011771934830, guid: 928ab05920c2fc44dafb3573d1b5fbc1, type: 3}
      propertyPath: m_LocalPosition.y
      value: 0.56
      objectReference: {fileID: 0}
    - target: {fileID: 4000011771934830, guid: 928ab05920c2fc44dafb3573d1b5fbc1, type: 3}
      propertyPath: m_LocalPosition.z
      value: 4.07
      objectReference: {fileID: 0}
    - target: {fileID: 4000011771934830, guid: 928ab05920c2fc44dafb3573d1b5fbc1, type: 3}
      propertyPath: m_LocalRotation.x
      value: 0
      objectReference: {fileID: 0}
    - target: {fileID: 4000011771934830, guid: 928ab05920c2fc44dafb3573d1b5fbc1, type: 3}
      propertyPath: m_LocalRotation.y
      value: -0.7071068
      objectReference: {fileID: 0}
    - target: {fileID: 4000011771934830, guid: 928ab05920c2fc44dafb3573d1b5fbc1, type: 3}
      propertyPath: m_LocalRotation.z
      value: 0
      objectReference: {fileID: 0}
    - target: {fileID: 4000011771934830, guid: 928ab05920c2fc44dafb3573d1b5fbc1, type: 3}
      propertyPath: m_LocalRotation.w
      value: 0.7071068
      objectReference: {fileID: 0}
    - target: {fileID: 4000011771934830, guid: 928ab05920c2fc44dafb3573d1b5fbc1, type: 3}
      propertyPath: m_RootOrder
      value: 6
      objectReference: {fileID: 0}
    m_RemovedComponents: []
  m_SourcePrefab: {fileID: 100100000, guid: 928ab05920c2fc44dafb3573d1b5fbc1, type: 3}
--- !u!1001 &864524023
PrefabInstance:
  m_ObjectHideFlags: 0
  serializedVersion: 2
  m_Modification:
    m_TransformParent: {fileID: 0}
    m_Modifications:
    - target: {fileID: 4000014112438746, guid: 959725da582aa9c4191ee51ee55fcaaa, type: 3}
      propertyPath: m_LocalPosition.x
      value: 2.8
      objectReference: {fileID: 0}
    - target: {fileID: 4000014112438746, guid: 959725da582aa9c4191ee51ee55fcaaa, type: 3}
      propertyPath: m_LocalPosition.y
      value: 0.42
      objectReference: {fileID: 0}
    - target: {fileID: 4000014112438746, guid: 959725da582aa9c4191ee51ee55fcaaa, type: 3}
      propertyPath: m_LocalPosition.z
      value: -11.35
      objectReference: {fileID: 0}
    - target: {fileID: 4000014112438746, guid: 959725da582aa9c4191ee51ee55fcaaa, type: 3}
      propertyPath: m_LocalRotation.x
      value: 0
      objectReference: {fileID: 0}
    - target: {fileID: 4000014112438746, guid: 959725da582aa9c4191ee51ee55fcaaa, type: 3}
      propertyPath: m_LocalRotation.y
      value: -0.7071068
      objectReference: {fileID: 0}
    - target: {fileID: 4000014112438746, guid: 959725da582aa9c4191ee51ee55fcaaa, type: 3}
      propertyPath: m_LocalRotation.z
      value: 0
      objectReference: {fileID: 0}
    - target: {fileID: 4000014112438746, guid: 959725da582aa9c4191ee51ee55fcaaa, type: 3}
      propertyPath: m_LocalRotation.w
      value: 0.7071068
      objectReference: {fileID: 0}
    - target: {fileID: 4000014112438746, guid: 959725da582aa9c4191ee51ee55fcaaa, type: 3}
      propertyPath: m_RootOrder
      value: 10
      objectReference: {fileID: 0}
    m_RemovedComponents: []
  m_SourcePrefab: {fileID: 100100000, guid: 959725da582aa9c4191ee51ee55fcaaa, type: 3}
--- !u!1001 &920238375
PrefabInstance:
  m_ObjectHideFlags: 0
  serializedVersion: 2
  m_Modification:
    m_TransformParent: {fileID: 0}
    m_Modifications:
    - target: {fileID: 4000013120964812, guid: 3d257e714ef9ccd449e0d0e0e373e1e5, type: 3}
      propertyPath: m_LocalPosition.x
      value: -2.46
      objectReference: {fileID: 0}
    - target: {fileID: 4000013120964812, guid: 3d257e714ef9ccd449e0d0e0e373e1e5, type: 3}
      propertyPath: m_LocalPosition.y
      value: 1.22
      objectReference: {fileID: 0}
    - target: {fileID: 4000013120964812, guid: 3d257e714ef9ccd449e0d0e0e373e1e5, type: 3}
      propertyPath: m_LocalPosition.z
      value: 3.99
      objectReference: {fileID: 0}
    - target: {fileID: 4000013120964812, guid: 3d257e714ef9ccd449e0d0e0e373e1e5, type: 3}
      propertyPath: m_LocalRotation.x
      value: 0
      objectReference: {fileID: 0}
    - target: {fileID: 4000013120964812, guid: 3d257e714ef9ccd449e0d0e0e373e1e5, type: 3}
      propertyPath: m_LocalRotation.y
      value: 0.7071068
      objectReference: {fileID: 0}
    - target: {fileID: 4000013120964812, guid: 3d257e714ef9ccd449e0d0e0e373e1e5, type: 3}
      propertyPath: m_LocalRotation.z
      value: 0
      objectReference: {fileID: 0}
    - target: {fileID: 4000013120964812, guid: 3d257e714ef9ccd449e0d0e0e373e1e5, type: 3}
      propertyPath: m_LocalRotation.w
      value: 0.7071068
      objectReference: {fileID: 0}
    - target: {fileID: 4000013120964812, guid: 3d257e714ef9ccd449e0d0e0e373e1e5, type: 3}
      propertyPath: m_RootOrder
      value: 8
      objectReference: {fileID: 0}
    m_RemovedComponents: []
  m_SourcePrefab: {fileID: 100100000, guid: 3d257e714ef9ccd449e0d0e0e373e1e5, type: 3}
--- !u!1001 &1066627262
PrefabInstance:
  m_ObjectHideFlags: 0
  serializedVersion: 2
  m_Modification:
    m_TransformParent: {fileID: 0}
    m_Modifications:
    - target: {fileID: 4000012195402566, guid: f77ebcdeb49293c40889ebc9f839e6e4, type: 3}
      propertyPath: m_LocalPosition.x
      value: -6.77
      objectReference: {fileID: 0}
    - target: {fileID: 4000012195402566, guid: f77ebcdeb49293c40889ebc9f839e6e4, type: 3}
      propertyPath: m_LocalPosition.y
      value: -0.03
      objectReference: {fileID: 0}
    - target: {fileID: 4000012195402566, guid: f77ebcdeb49293c40889ebc9f839e6e4, type: 3}
      propertyPath: m_LocalPosition.z
      value: -15.29
      objectReference: {fileID: 0}
    - target: {fileID: 4000012195402566, guid: f77ebcdeb49293c40889ebc9f839e6e4, type: 3}
      propertyPath: m_LocalRotation.x
      value: 0
      objectReference: {fileID: 0}
    - target: {fileID: 4000012195402566, guid: f77ebcdeb49293c40889ebc9f839e6e4, type: 3}
      propertyPath: m_LocalRotation.y
      value: 1
      objectReference: {fileID: 0}
    - target: {fileID: 4000012195402566, guid: f77ebcdeb49293c40889ebc9f839e6e4, type: 3}
      propertyPath: m_LocalRotation.z
      value: 0
      objectReference: {fileID: 0}
    - target: {fileID: 4000012195402566, guid: f77ebcdeb49293c40889ebc9f839e6e4, type: 3}
      propertyPath: m_LocalRotation.w
      value: 0
      objectReference: {fileID: 0}
    - target: {fileID: 4000012195402566, guid: f77ebcdeb49293c40889ebc9f839e6e4, type: 3}
      propertyPath: m_RootOrder
      value: 13
      objectReference: {fileID: 0}
    m_RemovedComponents: []
  m_SourcePrefab: {fileID: 100100000, guid: f77ebcdeb49293c40889ebc9f839e6e4, type: 3}
--- !u!1 &1081555947
GameObject:
  m_ObjectHideFlags: 0
  m_CorrespondingSourceObject: {fileID: 0}
  m_PrefabInstance: {fileID: 0}
  m_PrefabAsset: {fileID: 0}
  serializedVersion: 6
  m_Component:
  - component: {fileID: 1081555951}
  - component: {fileID: 1081555950}
  - component: {fileID: 1081555949}
  - component: {fileID: 1081555948}
  m_Layer: 0
  m_Name: Wall
  m_TagString: Untagged
  m_Icon: {fileID: 0}
  m_NavMeshLayer: 0
  m_StaticEditorFlags: 0
  m_IsActive: 1
--- !u!23 &1081555948
MeshRenderer:
  m_ObjectHideFlags: 0
  m_CorrespondingSourceObject: {fileID: 0}
  m_PrefabInstance: {fileID: 0}
  m_PrefabAsset: {fileID: 0}
  m_GameObject: {fileID: 1081555947}
  m_Enabled: 1
  m_CastShadows: 0
  m_ReceiveShadows: 1
  m_DynamicOccludee: 1
  m_MotionVectors: 1
  m_LightProbeUsage: 1
  m_ReflectionProbeUsage: 1
  m_RenderingLayerMask: 1
  m_RendererPriority: 0
  m_Materials:
  - {fileID: 10303, guid: 0000000000000000f000000000000000, type: 0}
  m_StaticBatchInfo:
    firstSubMesh: 0
    subMeshCount: 0
  m_StaticBatchRoot: {fileID: 0}
  m_ProbeAnchor: {fileID: 0}
  m_LightProbeVolumeOverride: {fileID: 0}
  m_ScaleInLightmap: 1
  m_PreserveUVs: 1
  m_IgnoreNormalsForChartDetection: 0
  m_ImportantGI: 0
  m_StitchLightmapSeams: 0
  m_SelectedEditorRenderState: 3
  m_MinimumChartSize: 4
  m_AutoUVMaxDistance: 0.5
  m_AutoUVMaxAngle: 89
  m_LightmapParameters: {fileID: 0}
  m_SortingLayerID: 0
  m_SortingLayer: 0
  m_SortingOrder: 0
--- !u!65 &1081555949
BoxCollider:
  m_ObjectHideFlags: 0
  m_CorrespondingSourceObject: {fileID: 0}
  m_PrefabInstance: {fileID: 0}
  m_PrefabAsset: {fileID: 0}
  m_GameObject: {fileID: 1081555947}
  m_Material: {fileID: 0}
  m_IsTrigger: 0
  m_Enabled: 1
  serializedVersion: 2
  m_Size: {x: 1, y: 1, z: 1}
  m_Center: {x: 0, y: 0, z: 0}
--- !u!33 &1081555950
MeshFilter:
  m_ObjectHideFlags: 0
  m_CorrespondingSourceObject: {fileID: 0}
  m_PrefabInstance: {fileID: 0}
  m_PrefabAsset: {fileID: 0}
  m_GameObject: {fileID: 1081555947}
  m_Mesh: {fileID: 10202, guid: 0000000000000000e000000000000000, type: 0}
--- !u!4 &1081555951
Transform:
  m_ObjectHideFlags: 0
  m_CorrespondingSourceObject: {fileID: 0}
  m_PrefabInstance: {fileID: 0}
  m_PrefabAsset: {fileID: 0}
  m_GameObject: {fileID: 1081555947}
  m_LocalRotation: {x: 0, y: 0.7071068, z: 0, w: 0.7071068}
  m_LocalPosition: {x: 3.71, y: 1, z: -19.14}
  m_LocalScale: {x: 19.5, y: 8, z: 0.52499956}
  m_Children: []
  m_Father: {fileID: 0}
  m_RootOrder: 34
  m_LocalEulerAnglesHint: {x: 0, y: 90, z: 0}
--- !u!1001 &1126542239
PrefabInstance:
  m_ObjectHideFlags: 0
  serializedVersion: 2
  m_Modification:
    m_TransformParent: {fileID: 0}
    m_Modifications:
    - target: {fileID: 4000011880463214, guid: f266cbc0b1e72924f909c3ea2b746949, type: 3}
      propertyPath: m_LocalPosition.x
      value: -6.84
      objectReference: {fileID: 0}
    - target: {fileID: 4000011880463214, guid: f266cbc0b1e72924f909c3ea2b746949, type: 3}
      propertyPath: m_LocalPosition.y
      value: 0.34
      objectReference: {fileID: 0}
    - target: {fileID: 4000011880463214, guid: f266cbc0b1e72924f909c3ea2b746949, type: 3}
      propertyPath: m_LocalPosition.z
      value: -21.76
      objectReference: {fileID: 0}
    - target: {fileID: 4000011880463214, guid: f266cbc0b1e72924f909c3ea2b746949, type: 3}
      propertyPath: m_LocalRotation.x
      value: 0
      objectReference: {fileID: 0}
    - target: {fileID: 4000011880463214, guid: f266cbc0b1e72924f909c3ea2b746949, type: 3}
      propertyPath: m_LocalRotation.y
      value: 1
      objectReference: {fileID: 0}
    - target: {fileID: 4000011880463214, guid: f266cbc0b1e72924f909c3ea2b746949, type: 3}
      propertyPath: m_LocalRotation.z
      value: 0
      objectReference: {fileID: 0}
    - target: {fileID: 4000011880463214, guid: f266cbc0b1e72924f909c3ea2b746949, type: 3}
      propertyPath: m_LocalRotation.w
      value: 0
      objectReference: {fileID: 0}
    - target: {fileID: 4000011880463214, guid: f266cbc0b1e72924f909c3ea2b746949, type: 3}
      propertyPath: m_RootOrder
      value: 14
      objectReference: {fileID: 0}
    m_RemovedComponents: []
  m_SourcePrefab: {fileID: 100100000, guid: f266cbc0b1e72924f909c3ea2b746949, type: 3}
--- !u!1 &1193132028
GameObject:
  m_ObjectHideFlags: 0
  m_CorrespondingSourceObject: {fileID: 0}
  m_PrefabInstance: {fileID: 0}
  m_PrefabAsset: {fileID: 0}
  serializedVersion: 6
  m_Component:
  - component: {fileID: 1193132032}
  - component: {fileID: 1193132031}
  - component: {fileID: 1193132030}
  - component: {fileID: 1193132029}
  m_Layer: 0
  m_Name: Wall
  m_TagString: Untagged
  m_Icon: {fileID: 0}
  m_NavMeshLayer: 0
  m_StaticEditorFlags: 0
  m_IsActive: 1
--- !u!23 &1193132029
MeshRenderer:
  m_ObjectHideFlags: 0
  m_CorrespondingSourceObject: {fileID: 0}
  m_PrefabInstance: {fileID: 0}
  m_PrefabAsset: {fileID: 0}
  m_GameObject: {fileID: 1193132028}
  m_Enabled: 1
  m_CastShadows: 0
  m_ReceiveShadows: 1
  m_DynamicOccludee: 1
  m_MotionVectors: 1
  m_LightProbeUsage: 1
  m_ReflectionProbeUsage: 1
  m_RenderingLayerMask: 1
  m_RendererPriority: 0
  m_Materials:
  - {fileID: 10303, guid: 0000000000000000f000000000000000, type: 0}
  m_StaticBatchInfo:
    firstSubMesh: 0
    subMeshCount: 0
  m_StaticBatchRoot: {fileID: 0}
  m_ProbeAnchor: {fileID: 0}
  m_LightProbeVolumeOverride: {fileID: 0}
  m_ScaleInLightmap: 1
  m_PreserveUVs: 1
  m_IgnoreNormalsForChartDetection: 0
  m_ImportantGI: 0
  m_StitchLightmapSeams: 0
  m_SelectedEditorRenderState: 3
  m_MinimumChartSize: 4
  m_AutoUVMaxDistance: 0.5
  m_AutoUVMaxAngle: 89
  m_LightmapParameters: {fileID: 0}
  m_SortingLayerID: 0
  m_SortingLayer: 0
  m_SortingOrder: 0
--- !u!65 &1193132030
BoxCollider:
  m_ObjectHideFlags: 0
  m_CorrespondingSourceObject: {fileID: 0}
  m_PrefabInstance: {fileID: 0}
  m_PrefabAsset: {fileID: 0}
  m_GameObject: {fileID: 1193132028}
  m_Material: {fileID: 0}
  m_IsTrigger: 0
  m_Enabled: 1
  serializedVersion: 2
  m_Size: {x: 1, y: 1, z: 1}
  m_Center: {x: 0, y: 0, z: 0}
--- !u!33 &1193132031
MeshFilter:
  m_ObjectHideFlags: 0
  m_CorrespondingSourceObject: {fileID: 0}
  m_PrefabInstance: {fileID: 0}
  m_PrefabAsset: {fileID: 0}
  m_GameObject: {fileID: 1193132028}
  m_Mesh: {fileID: 10202, guid: 0000000000000000e000000000000000, type: 0}
--- !u!4 &1193132032
Transform:
  m_ObjectHideFlags: 0
  m_CorrespondingSourceObject: {fileID: 0}
  m_PrefabInstance: {fileID: 0}
  m_PrefabAsset: {fileID: 0}
  m_GameObject: {fileID: 1193132028}
  m_LocalRotation: {x: 0, y: 0.7071068, z: 0, w: 0.7071068}
  m_LocalPosition: {x: 3.71, y: 1, z: 4.24}
  m_LocalScale: {x: 14, y: 8, z: 0.52499956}
  m_Children: []
  m_Father: {fileID: 0}
  m_RootOrder: 33
  m_LocalEulerAnglesHint: {x: 0, y: 90, z: 0}
--- !u!1001 &1203451881
PrefabInstance:
  m_ObjectHideFlags: 0
  serializedVersion: 2
  m_Modification:
    m_TransformParent: {fileID: 0}
    m_Modifications:
    - target: {fileID: 4000011832958230, guid: ca1b6a54d5f844248a66c6339eabffed, type: 3}
      propertyPath: m_LocalPosition.x
      value: 18.34
      objectReference: {fileID: 0}
    - target: {fileID: 4000011832958230, guid: ca1b6a54d5f844248a66c6339eabffed, type: 3}
      propertyPath: m_LocalPosition.y
      value: 0.43
      objectReference: {fileID: 0}
    - target: {fileID: 4000011832958230, guid: ca1b6a54d5f844248a66c6339eabffed, type: 3}
      propertyPath: m_LocalPosition.z
      value: -13.9
      objectReference: {fileID: 0}
    - target: {fileID: 4000011832958230, guid: ca1b6a54d5f844248a66c6339eabffed, type: 3}
      propertyPath: m_LocalRotation.x
      value: 0
      objectReference: {fileID: 0}
    - target: {fileID: 4000011832958230, guid: ca1b6a54d5f844248a66c6339eabffed, type: 3}
      propertyPath: m_LocalRotation.y
      value: -0.7071068
      objectReference: {fileID: 0}
    - target: {fileID: 4000011832958230, guid: ca1b6a54d5f844248a66c6339eabffed, type: 3}
      propertyPath: m_LocalRotation.z
      value: 0
      objectReference: {fileID: 0}
    - target: {fileID: 4000011832958230, guid: ca1b6a54d5f844248a66c6339eabffed, type: 3}
      propertyPath: m_LocalRotation.w
      value: 0.7071068
      objectReference: {fileID: 0}
    - target: {fileID: 4000011832958230, guid: ca1b6a54d5f844248a66c6339eabffed, type: 3}
      propertyPath: m_RootOrder
      value: 23
      objectReference: {fileID: 0}
    m_RemovedComponents: []
  m_SourcePrefab: {fileID: 100100000, guid: ca1b6a54d5f844248a66c6339eabffed, type: 3}
--- !u!1001 &1230959441
PrefabInstance:
  m_ObjectHideFlags: 0
  serializedVersion: 2
  m_Modification:
    m_TransformParent: {fileID: 0}
    m_Modifications:
    - target: {fileID: 4000011979747692, guid: e053dc897fa5cd74dbc81e55e06a1614, type: 3}
      propertyPath: m_LocalPosition.x
      value: 18.24
      objectReference: {fileID: 0}
    - target: {fileID: 4000011979747692, guid: e053dc897fa5cd74dbc81e55e06a1614, type: 3}
      propertyPath: m_LocalPosition.y
      value: 2.2
      objectReference: {fileID: 0}
    - target: {fileID: 4000011979747692, guid: e053dc897fa5cd74dbc81e55e06a1614, type: 3}
      propertyPath: m_LocalPosition.z
      value: -17.34
      objectReference: {fileID: 0}
    - target: {fileID: 4000011979747692, guid: e053dc897fa5cd74dbc81e55e06a1614, type: 3}
      propertyPath: m_LocalRotation.x
      value: 0
      objectReference: {fileID: 0}
    - target: {fileID: 4000011979747692, guid: e053dc897fa5cd74dbc81e55e06a1614, type: 3}
      propertyPath: m_LocalRotation.y
      value: 1
      objectReference: {fileID: 0}
    - target: {fileID: 4000011979747692, guid: e053dc897fa5cd74dbc81e55e06a1614, type: 3}
      propertyPath: m_LocalRotation.z
      value: 0
      objectReference: {fileID: 0}
    - target: {fileID: 4000011979747692, guid: e053dc897fa5cd74dbc81e55e06a1614, type: 3}
      propertyPath: m_LocalRotation.w
      value: 0
      objectReference: {fileID: 0}
    - target: {fileID: 4000011979747692, guid: e053dc897fa5cd74dbc81e55e06a1614, type: 3}
      propertyPath: m_RootOrder
      value: 24
      objectReference: {fileID: 0}
    m_RemovedComponents: []
  m_SourcePrefab: {fileID: 100100000, guid: e053dc897fa5cd74dbc81e55e06a1614, type: 3}
--- !u!1001 &1240165680
PrefabInstance:
  m_ObjectHideFlags: 0
  serializedVersion: 2
  m_Modification:
    m_TransformParent: {fileID: 0}
    m_Modifications:
    - target: {fileID: 4000010788838122, guid: 02720cae123f313459194cd837caf3aa, type: 3}
      propertyPath: m_LocalPosition.x
      value: 10.41
      objectReference: {fileID: 0}
    - target: {fileID: 4000010788838122, guid: 02720cae123f313459194cd837caf3aa, type: 3}
      propertyPath: m_LocalPosition.y
      value: 0.46
      objectReference: {fileID: 0}
    - target: {fileID: 4000010788838122, guid: 02720cae123f313459194cd837caf3aa, type: 3}
      propertyPath: m_LocalPosition.z
      value: 10.64
      objectReference: {fileID: 0}
    - target: {fileID: 4000010788838122, guid: 02720cae123f313459194cd837caf3aa, type: 3}
      propertyPath: m_LocalRotation.x
      value: 0
      objectReference: {fileID: 0}
    - target: {fileID: 4000010788838122, guid: 02720cae123f313459194cd837caf3aa, type: 3}
      propertyPath: m_LocalRotation.y
      value: 1
      objectReference: {fileID: 0}
    - target: {fileID: 4000010788838122, guid: 02720cae123f313459194cd837caf3aa, type: 3}
      propertyPath: m_LocalRotation.z
      value: 0
      objectReference: {fileID: 0}
    - target: {fileID: 4000010788838122, guid: 02720cae123f313459194cd837caf3aa, type: 3}
      propertyPath: m_LocalRotation.w
      value: 0
      objectReference: {fileID: 0}
    - target: {fileID: 4000010788838122, guid: 02720cae123f313459194cd837caf3aa, type: 3}
      propertyPath: m_RootOrder
      value: 16
      objectReference: {fileID: 0}
    m_RemovedComponents: []
  m_SourcePrefab: {fileID: 100100000, guid: 02720cae123f313459194cd837caf3aa, type: 3}
--- !u!1001 &1276173540
PrefabInstance:
  m_ObjectHideFlags: 0
  serializedVersion: 2
  m_Modification:
    m_TransformParent: {fileID: 0}
    m_Modifications:
    - target: {fileID: 4000012714493184, guid: 5b88d82a8ae2d7f40aedac31333ce98f, type: 3}
      propertyPath: m_LocalPosition.x
      value: 18.66
      objectReference: {fileID: 0}
    - target: {fileID: 4000012714493184, guid: 5b88d82a8ae2d7f40aedac31333ce98f, type: 3}
      propertyPath: m_LocalPosition.y
      value: 1.13
      objectReference: {fileID: 0}
    - target: {fileID: 4000012714493184, guid: 5b88d82a8ae2d7f40aedac31333ce98f, type: 3}
      propertyPath: m_LocalPosition.z
      value: -7.25
      objectReference: {fileID: 0}
    - target: {fileID: 4000012714493184, guid: 5b88d82a8ae2d7f40aedac31333ce98f, type: 3}
      propertyPath: m_LocalRotation.x
      value: 0
      objectReference: {fileID: 0}
    - target: {fileID: 4000012714493184, guid: 5b88d82a8ae2d7f40aedac31333ce98f, type: 3}
      propertyPath: m_LocalRotation.y
      value: -0.7071068
      objectReference: {fileID: 0}
    - target: {fileID: 4000012714493184, guid: 5b88d82a8ae2d7f40aedac31333ce98f, type: 3}
      propertyPath: m_LocalRotation.z
      value: 0
      objectReference: {fileID: 0}
    - target: {fileID: 4000012714493184, guid: 5b88d82a8ae2d7f40aedac31333ce98f, type: 3}
      propertyPath: m_LocalRotation.w
      value: 0.7071068
      objectReference: {fileID: 0}
    - target: {fileID: 4000012714493184, guid: 5b88d82a8ae2d7f40aedac31333ce98f, type: 3}
      propertyPath: m_RootOrder
      value: 25
      objectReference: {fileID: 0}
    m_RemovedComponents: []
  m_SourcePrefab: {fileID: 100100000, guid: 5b88d82a8ae2d7f40aedac31333ce98f, type: 3}
--- !u!1 &1310457106
GameObject:
  m_ObjectHideFlags: 0
  m_CorrespondingSourceObject: {fileID: 0}
  m_PrefabInstance: {fileID: 0}
  m_PrefabAsset: {fileID: 0}
  serializedVersion: 6
  m_Component:
  - component: {fileID: 1310457110}
  - component: {fileID: 1310457109}
  - component: {fileID: 1310457108}
  - component: {fileID: 1310457107}
  m_Layer: 0
  m_Name: Plane
  m_TagString: Untagged
  m_Icon: {fileID: 0}
  m_NavMeshLayer: 0
  m_StaticEditorFlags: 0
  m_IsActive: 1
--- !u!23 &1310457107
MeshRenderer:
  m_ObjectHideFlags: 0
  m_CorrespondingSourceObject: {fileID: 0}
  m_PrefabInstance: {fileID: 0}
  m_PrefabAsset: {fileID: 0}
  m_GameObject: {fileID: 1310457106}
  m_Enabled: 1
  m_CastShadows: 1
  m_ReceiveShadows: 1
  m_DynamicOccludee: 1
  m_MotionVectors: 1
  m_LightProbeUsage: 1
  m_ReflectionProbeUsage: 1
  m_RenderingLayerMask: 1
  m_RendererPriority: 0
  m_Materials:
  - {fileID: 2100000, guid: d9ed81d4fbf959a468e53f1553e4cb45, type: 2}
  m_StaticBatchInfo:
    firstSubMesh: 0
    subMeshCount: 0
  m_StaticBatchRoot: {fileID: 0}
  m_ProbeAnchor: {fileID: 0}
  m_LightProbeVolumeOverride: {fileID: 0}
  m_ScaleInLightmap: 1
  m_PreserveUVs: 1
  m_IgnoreNormalsForChartDetection: 0
  m_ImportantGI: 0
  m_StitchLightmapSeams: 0
  m_SelectedEditorRenderState: 3
  m_MinimumChartSize: 4
  m_AutoUVMaxDistance: 0.5
  m_AutoUVMaxAngle: 89
  m_LightmapParameters: {fileID: 0}
  m_SortingLayerID: 0
  m_SortingLayer: 0
  m_SortingOrder: 0
--- !u!64 &1310457108
MeshCollider:
  m_ObjectHideFlags: 0
  m_CorrespondingSourceObject: {fileID: 0}
  m_PrefabInstance: {fileID: 0}
  m_PrefabAsset: {fileID: 0}
  m_GameObject: {fileID: 1310457106}
  m_Material: {fileID: 0}
  m_IsTrigger: 0
  m_Enabled: 1
  serializedVersion: 3
  m_Convex: 0
  m_CookingOptions: 14
  m_Mesh: {fileID: 10209, guid: 0000000000000000e000000000000000, type: 0}
--- !u!33 &1310457109
MeshFilter:
  m_ObjectHideFlags: 0
  m_CorrespondingSourceObject: {fileID: 0}
  m_PrefabInstance: {fileID: 0}
  m_PrefabAsset: {fileID: 0}
  m_GameObject: {fileID: 1310457106}
  m_Mesh: {fileID: 10209, guid: 0000000000000000e000000000000000, type: 0}
--- !u!4 &1310457110
Transform:
  m_ObjectHideFlags: 0
  m_CorrespondingSourceObject: {fileID: 0}
  m_PrefabInstance: {fileID: 0}
  m_PrefabAsset: {fileID: 0}
  m_GameObject: {fileID: 1310457106}
  m_LocalRotation: {x: 0, y: 0, z: 0, w: 1}
  m_LocalPosition: {x: 1.2556, y: -0.92, z: -6.4232}
  m_LocalScale: {x: 18.628958, y: 18.62895, z: 18.62895}
  m_Children: []
  m_Father: {fileID: 0}
  m_RootOrder: 2
  m_LocalEulerAnglesHint: {x: 0, y: 0, z: 0}
--- !u!1001 &1485893792
PrefabInstance:
  m_ObjectHideFlags: 0
  serializedVersion: 2
  m_Modification:
    m_TransformParent: {fileID: 0}
    m_Modifications:
    - target: {fileID: 4000012125928024, guid: 83b95243d15f01b4e85b125582c896c5, type: 3}
      propertyPath: m_LocalPosition.x
      value: -3.68
      objectReference: {fileID: 0}
    - target: {fileID: 4000012125928024, guid: 83b95243d15f01b4e85b125582c896c5, type: 3}
      propertyPath: m_LocalPosition.y
      value: 0.56
      objectReference: {fileID: 0}
    - target: {fileID: 4000012125928024, guid: 83b95243d15f01b4e85b125582c896c5, type: 3}
      propertyPath: m_LocalPosition.z
      value: 10.07
      objectReference: {fileID: 0}
    - target: {fileID: 4000012125928024, guid: 83b95243d15f01b4e85b125582c896c5, type: 3}
      propertyPath: m_LocalRotation.x
      value: 0
      objectReference: {fileID: 0}
    - target: {fileID: 4000012125928024, guid: 83b95243d15f01b4e85b125582c896c5, type: 3}
      propertyPath: m_LocalRotation.y
      value: 1
      objectReference: {fileID: 0}
    - target: {fileID: 4000012125928024, guid: 83b95243d15f01b4e85b125582c896c5, type: 3}
      propertyPath: m_LocalRotation.z
      value: 0
      objectReference: {fileID: 0}
    - target: {fileID: 4000012125928024, guid: 83b95243d15f01b4e85b125582c896c5, type: 3}
      propertyPath: m_LocalRotation.w
      value: 0
      objectReference: {fileID: 0}
    - target: {fileID: 4000012125928024, guid: 83b95243d15f01b4e85b125582c896c5, type: 3}
      propertyPath: m_RootOrder
      value: 4
      objectReference: {fileID: 0}
    m_RemovedComponents: []
  m_SourcePrefab: {fileID: 100100000, guid: 83b95243d15f01b4e85b125582c896c5, type: 3}
--- !u!1 &1528516373
GameObject:
  m_ObjectHideFlags: 0
  m_CorrespondingSourceObject: {fileID: 0}
  m_PrefabInstance: {fileID: 0}
  m_PrefabAsset: {fileID: 0}
  serializedVersion: 6
  m_Component:
  - component: {fileID: 1528516378}
  - component: {fileID: 1528516377}
  - component: {fileID: 1528516376}
  - component: {fileID: 1528516375}
  - component: {fileID: 1528516374}
  m_Layer: 0
  m_Name: Main Camera
  m_TagString: MainCamera
  m_Icon: {fileID: 0}
  m_NavMeshLayer: 0
  m_StaticEditorFlags: 0
  m_IsActive: 1
--- !u!81 &1528516374
AudioListener:
  m_ObjectHideFlags: 0
  m_CorrespondingSourceObject: {fileID: 0}
  m_PrefabInstance: {fileID: 0}
  m_PrefabAsset: {fileID: 0}
  m_GameObject: {fileID: 1528516373}
  m_Enabled: 1
--- !u!124 &1528516375
Behaviour:
  m_ObjectHideFlags: 0
  m_CorrespondingSourceObject: {fileID: 0}
  m_PrefabInstance: {fileID: 0}
  m_PrefabAsset: {fileID: 0}
  m_GameObject: {fileID: 1528516373}
  m_Enabled: 1
--- !u!92 &1528516376
Behaviour:
  m_ObjectHideFlags: 0
  m_CorrespondingSourceObject: {fileID: 0}
  m_PrefabInstance: {fileID: 0}
  m_PrefabAsset: {fileID: 0}
  m_GameObject: {fileID: 1528516373}
  m_Enabled: 1
--- !u!20 &1528516377
Camera:
  m_ObjectHideFlags: 0
  m_CorrespondingSourceObject: {fileID: 0}
  m_PrefabInstance: {fileID: 0}
  m_PrefabAsset: {fileID: 0}
  m_GameObject: {fileID: 1528516373}
  m_Enabled: 1
  serializedVersion: 2
  m_ClearFlags: 1
  m_BackGroundColor: {r: 0.19215687, g: 0.3019608, b: 0.4745098, a: 0}
  m_projectionMatrixMode: 1
  m_SensorSize: {x: 36, y: 24}
  m_LensShift: {x: 0, y: 0}
  m_GateFitMode: 2
  m_FocalLength: 50
  m_NormalizedViewPortRect:
    serializedVersion: 2
    x: 0
    y: 0
    width: 1
    height: 1
  near clip plane: 0.3
  far clip plane: 1000
  field of view: 60
  orthographic: 1
  orthographic size: 15
  m_Depth: -1
  m_CullingMask:
    serializedVersion: 2
    m_Bits: 4294967295
  m_RenderingPath: -1
  m_TargetTexture: {fileID: 0}
  m_TargetDisplay: 0
  m_TargetEye: 3
  m_HDR: 0
  m_AllowMSAA: 1
  m_AllowDynamicResolution: 0
  m_ForceIntoRT: 0
  m_OcclusionCulling: 1
  m_StereoConvergence: 10
  m_StereoSeparation: 0.022
--- !u!4 &1528516378
Transform:
  m_ObjectHideFlags: 0
  m_CorrespondingSourceObject: {fileID: 0}
  m_PrefabInstance: {fileID: 0}
  m_PrefabAsset: {fileID: 0}
  m_GameObject: {fileID: 1528516373}
  m_LocalRotation: {x: 0.23911765, y: 0.3696438, z: -0.09904577, w: 0.89239913}
  m_LocalPosition: {x: -66.77, y: 57, z: -75.23}
  m_LocalScale: {x: 1, y: 1, z: 1}
  m_Children: []
  m_Father: {fileID: 0}
  m_RootOrder: 0
  m_LocalEulerAnglesHint: {x: 30, y: 45, z: 0}
--- !u!1001 &1563689574
PrefabInstance:
  m_ObjectHideFlags: 0
  serializedVersion: 2
  m_Modification:
    m_TransformParent: {fileID: 0}
    m_Modifications:
    - target: {fileID: 4000011046743032, guid: 1238da40397ef9d428b6d3212674e684, type: 3}
      propertyPath: m_LocalPosition.x
      value: 6.17
      objectReference: {fileID: 0}
    - target: {fileID: 4000011046743032, guid: 1238da40397ef9d428b6d3212674e684, type: 3}
      propertyPath: m_LocalPosition.y
      value: 0.08
      objectReference: {fileID: 0}
    - target: {fileID: 4000011046743032, guid: 1238da40397ef9d428b6d3212674e684, type: 3}
      propertyPath: m_LocalPosition.z
      value: -17.83
      objectReference: {fileID: 0}
    - target: {fileID: 4000011046743032, guid: 1238da40397ef9d428b6d3212674e684, type: 3}
      propertyPath: m_LocalRotation.x
      value: 0
      objectReference: {fileID: 0}
    - target: {fileID: 4000011046743032, guid: 1238da40397ef9d428b6d3212674e684, type: 3}
      propertyPath: m_LocalRotation.y
      value: 0.7071068
      objectReference: {fileID: 0}
    - target: {fileID: 4000011046743032, guid: 1238da40397ef9d428b6d3212674e684, type: 3}
      propertyPath: m_LocalRotation.z
      value: 0
      objectReference: {fileID: 0}
    - target: {fileID: 4000011046743032, guid: 1238da40397ef9d428b6d3212674e684, type: 3}
      propertyPath: m_LocalRotation.w
      value: 0.7071068
      objectReference: {fileID: 0}
    - target: {fileID: 4000011046743032, guid: 1238da40397ef9d428b6d3212674e684, type: 3}
      propertyPath: m_RootOrder
      value: 21
      objectReference: {fileID: 0}
    m_RemovedComponents: []
  m_SourcePrefab: {fileID: 100100000, guid: 1238da40397ef9d428b6d3212674e684, type: 3}
--- !u!1001 &1569761161
PrefabInstance:
  m_ObjectHideFlags: 0
  serializedVersion: 2
  m_Modification:
    m_TransformParent: {fileID: 0}
    m_Modifications:
    - target: {fileID: 4000014154446392, guid: d87d11194b29e3a4c87503bd09c0a664, type: 3}
      propertyPath: m_LocalPosition.x
      value: -0.64
      objectReference: {fileID: 0}
    - target: {fileID: 4000014154446392, guid: d87d11194b29e3a4c87503bd09c0a664, type: 3}
      propertyPath: m_LocalPosition.y
      value: 0.28
      objectReference: {fileID: 0}
    - target: {fileID: 4000014154446392, guid: d87d11194b29e3a4c87503bd09c0a664, type: 3}
      propertyPath: m_LocalPosition.z
      value: -14.96
      objectReference: {fileID: 0}
    - target: {fileID: 4000014154446392, guid: d87d11194b29e3a4c87503bd09c0a664, type: 3}
      propertyPath: m_LocalRotation.x
      value: 0
      objectReference: {fileID: 0}
    - target: {fileID: 4000014154446392, guid: d87d11194b29e3a4c87503bd09c0a664, type: 3}
      propertyPath: m_LocalRotation.y
      value: -0.7071068
      objectReference: {fileID: 0}
    - target: {fileID: 4000014154446392, guid: d87d11194b29e3a4c87503bd09c0a664, type: 3}
      propertyPath: m_LocalRotation.z
      value: 0
      objectReference: {fileID: 0}
    - target: {fileID: 4000014154446392, guid: d87d11194b29e3a4c87503bd09c0a664, type: 3}
      propertyPath: m_LocalRotation.w
      value: 0.7071068
      objectReference: {fileID: 0}
    - target: {fileID: 4000014154446392, guid: d87d11194b29e3a4c87503bd09c0a664, type: 3}
      propertyPath: m_RootOrder
      value: 11
      objectReference: {fileID: 0}
    m_RemovedComponents: []
  m_SourcePrefab: {fileID: 100100000, guid: d87d11194b29e3a4c87503bd09c0a664, type: 3}
--- !u!1001 &1602517468
PrefabInstance:
  m_ObjectHideFlags: 0
  serializedVersion: 2
  m_Modification:
    m_TransformParent: {fileID: 0}
    m_Modifications:
    - target: {fileID: 4000011139200846, guid: e1b42a4f28b93f74c8031aa95708fed2, type: 3}
      propertyPath: m_LocalPosition.x
      value: 13.4
      objectReference: {fileID: 0}
    - target: {fileID: 4000011139200846, guid: e1b42a4f28b93f74c8031aa95708fed2, type: 3}
      propertyPath: m_LocalPosition.y
      value: 1.02
      objectReference: {fileID: 0}
    - target: {fileID: 4000011139200846, guid: e1b42a4f28b93f74c8031aa95708fed2, type: 3}
      propertyPath: m_LocalPosition.z
      value: 10.81
      objectReference: {fileID: 0}
    - target: {fileID: 4000011139200846, guid: e1b42a4f28b93f74c8031aa95708fed2, type: 3}
      propertyPath: m_LocalRotation.x
      value: 0
      objectReference: {fileID: 0}
    - target: {fileID: 4000011139200846, guid: e1b42a4f28b93f74c8031aa95708fed2, type: 3}
      propertyPath: m_LocalRotation.y
      value: 1
      objectReference: {fileID: 0}
    - target: {fileID: 4000011139200846, guid: e1b42a4f28b93f74c8031aa95708fed2, type: 3}
      propertyPath: m_LocalRotation.z
      value: 0
      objectReference: {fileID: 0}
    - target: {fileID: 4000011139200846, guid: e1b42a4f28b93f74c8031aa95708fed2, type: 3}
      propertyPath: m_LocalRotation.w
      value: 0
      objectReference: {fileID: 0}
    - target: {fileID: 4000011139200846, guid: e1b42a4f28b93f74c8031aa95708fed2, type: 3}
      propertyPath: m_RootOrder
      value: 17
      objectReference: {fileID: 0}
    m_RemovedComponents: []
  m_SourcePrefab: {fileID: 100100000, guid: e1b42a4f28b93f74c8031aa95708fed2, type: 3}
--- !u!1001 &1674487530
PrefabInstance:
  m_ObjectHideFlags: 0
  serializedVersion: 2
  m_Modification:
    m_TransformParent: {fileID: 0}
    m_Modifications:
    - target: {fileID: 4000013270951448, guid: 336df0048f520f745a550ee50fb12cd6, type: 3}
      propertyPath: m_LocalPosition.x
      value: 8.95
      objectReference: {fileID: 0}
    - target: {fileID: 4000013270951448, guid: 336df0048f520f745a550ee50fb12cd6, type: 3}
      propertyPath: m_LocalPosition.y
      value: 1.57
      objectReference: {fileID: 0}
    - target: {fileID: 4000013270951448, guid: 336df0048f520f745a550ee50fb12cd6, type: 3}
      propertyPath: m_LocalPosition.z
      value: -13.48
      objectReference: {fileID: 0}
    - target: {fileID: 4000013270951448, guid: 336df0048f520f745a550ee50fb12cd6, type: 3}
      propertyPath: m_LocalRotation.x
      value: 0
      objectReference: {fileID: 0}
    - target: {fileID: 4000013270951448, guid: 336df0048f520f745a550ee50fb12cd6, type: 3}
      propertyPath: m_LocalRotation.y
      value: 0.7071068
      objectReference: {fileID: 0}
    - target: {fileID: 4000013270951448, guid: 336df0048f520f745a550ee50fb12cd6, type: 3}
      propertyPath: m_LocalRotation.z
      value: 0
      objectReference: {fileID: 0}
    - target: {fileID: 4000013270951448, guid: 336df0048f520f745a550ee50fb12cd6, type: 3}
      propertyPath: m_LocalRotation.w
      value: 0.7071068
      objectReference: {fileID: 0}
    - target: {fileID: 4000013270951448, guid: 336df0048f520f745a550ee50fb12cd6, type: 3}
      propertyPath: m_RootOrder
      value: 20
      objectReference: {fileID: 0}
    m_RemovedComponents: []
  m_SourcePrefab: {fileID: 100100000, guid: 336df0048f520f745a550ee50fb12cd6, type: 3}
--- !u!1 &1729444986
GameObject:
  m_ObjectHideFlags: 0
  m_CorrespondingSourceObject: {fileID: 0}
  m_PrefabInstance: {fileID: 0}
  m_PrefabAsset: {fileID: 0}
  serializedVersion: 6
  m_Component:
  - component: {fileID: 1729444990}
  - component: {fileID: 1729444989}
  - component: {fileID: 1729444988}
  - component: {fileID: 1729444987}
  m_Layer: 0
  m_Name: Wall
  m_TagString: Untagged
  m_Icon: {fileID: 0}
  m_NavMeshLayer: 0
  m_StaticEditorFlags: 0
  m_IsActive: 1
--- !u!23 &1729444987
MeshRenderer:
  m_ObjectHideFlags: 0
  m_CorrespondingSourceObject: {fileID: 0}
  m_PrefabInstance: {fileID: 0}
  m_PrefabAsset: {fileID: 0}
  m_GameObject: {fileID: 1729444986}
  m_Enabled: 1
  m_CastShadows: 0
  m_ReceiveShadows: 1
  m_DynamicOccludee: 1
  m_MotionVectors: 1
  m_LightProbeUsage: 1
  m_ReflectionProbeUsage: 1
  m_RenderingLayerMask: 1
  m_RendererPriority: 0
  m_Materials:
  - {fileID: 10303, guid: 0000000000000000f000000000000000, type: 0}
  m_StaticBatchInfo:
    firstSubMesh: 0
    subMeshCount: 0
  m_StaticBatchRoot: {fileID: 0}
  m_ProbeAnchor: {fileID: 0}
  m_LightProbeVolumeOverride: {fileID: 0}
  m_ScaleInLightmap: 1
  m_PreserveUVs: 1
  m_IgnoreNormalsForChartDetection: 0
  m_ImportantGI: 0
  m_StitchLightmapSeams: 0
  m_SelectedEditorRenderState: 3
  m_MinimumChartSize: 4
  m_AutoUVMaxDistance: 0.5
  m_AutoUVMaxAngle: 89
  m_LightmapParameters: {fileID: 0}
  m_SortingLayerID: 0
  m_SortingLayer: 0
  m_SortingOrder: 0
--- !u!65 &1729444988
BoxCollider:
  m_ObjectHideFlags: 0
  m_CorrespondingSourceObject: {fileID: 0}
  m_PrefabInstance: {fileID: 0}
  m_PrefabAsset: {fileID: 0}
  m_GameObject: {fileID: 1729444986}
  m_Material: {fileID: 0}
  m_IsTrigger: 0
  m_Enabled: 1
  serializedVersion: 2
  m_Size: {x: 1, y: 1, z: 1}
  m_Center: {x: 0, y: 0, z: 0}
--- !u!33 &1729444989
MeshFilter:
  m_ObjectHideFlags: 0
  m_CorrespondingSourceObject: {fileID: 0}
  m_PrefabInstance: {fileID: 0}
  m_PrefabAsset: {fileID: 0}
  m_GameObject: {fileID: 1729444986}
  m_Mesh: {fileID: 10202, guid: 0000000000000000e000000000000000, type: 0}
--- !u!4 &1729444990
Transform:
  m_ObjectHideFlags: 0
  m_CorrespondingSourceObject: {fileID: 0}
  m_PrefabInstance: {fileID: 0}
  m_PrefabAsset: {fileID: 0}
  m_GameObject: {fileID: 1729444986}
  m_LocalRotation: {x: 0, y: 0.7071068, z: 0, w: 0.7071068}
  m_LocalPosition: {x: -18.4, y: 1, z: -8.8}
  m_LocalScale: {x: 40, y: 8, z: 0.52499956}
  m_Children: []
  m_Father: {fileID: 0}
  m_RootOrder: 36
  m_LocalEulerAnglesHint: {x: 0, y: 90, z: 0}
--- !u!1001 &1757135294
PrefabInstance:
  m_ObjectHideFlags: 0
  serializedVersion: 2
  m_Modification:
    m_TransformParent: {fileID: 0}
    m_Modifications:
    - target: {fileID: 100000, guid: b36dbcc8ef8059c4a9c8f753d6b0350b, type: 3}
      propertyPath: m_IsActive
      value: 1
      objectReference: {fileID: 0}
    - target: {fileID: 100000, guid: b36dbcc8ef8059c4a9c8f753d6b0350b, type: 3}
      propertyPath: m_Name
      value: Drawer (2)
      objectReference: {fileID: 0}
    - target: {fileID: 400000, guid: b36dbcc8ef8059c4a9c8f753d6b0350b, type: 3}
      propertyPath: m_LocalPosition.x
      value: 6.17
      objectReference: {fileID: 0}
    - target: {fileID: 400000, guid: b36dbcc8ef8059c4a9c8f753d6b0350b, type: 3}
      propertyPath: m_LocalPosition.y
      value: 0.08
      objectReference: {fileID: 0}
    - target: {fileID: 400000, guid: b36dbcc8ef8059c4a9c8f753d6b0350b, type: 3}
      propertyPath: m_LocalPosition.z
      value: -9.16
      objectReference: {fileID: 0}
    - target: {fileID: 400000, guid: b36dbcc8ef8059c4a9c8f753d6b0350b, type: 3}
      propertyPath: m_LocalRotation.x
      value: 0
      objectReference: {fileID: 0}
    - target: {fileID: 400000, guid: b36dbcc8ef8059c4a9c8f753d6b0350b, type: 3}
      propertyPath: m_LocalRotation.y
      value: 0.7071068
      objectReference: {fileID: 0}
    - target: {fileID: 400000, guid: b36dbcc8ef8059c4a9c8f753d6b0350b, type: 3}
      propertyPath: m_LocalRotation.z
      value: 0
      objectReference: {fileID: 0}
    - target: {fileID: 400000, guid: b36dbcc8ef8059c4a9c8f753d6b0350b, type: 3}
      propertyPath: m_LocalRotation.w
      value: 0.7071068
      objectReference: {fileID: 0}
    - target: {fileID: 400000, guid: b36dbcc8ef8059c4a9c8f753d6b0350b, type: 3}
      propertyPath: m_RootOrder
      value: 28
      objectReference: {fileID: 0}
    - target: {fileID: 400000, guid: b36dbcc8ef8059c4a9c8f753d6b0350b, type: 3}
      propertyPath: m_LocalEulerAnglesHint.y
      value: 90
      objectReference: {fileID: 0}
    m_RemovedComponents: []
  m_SourcePrefab: {fileID: 100100000, guid: b36dbcc8ef8059c4a9c8f753d6b0350b, type: 3}
--- !u!1001 &1890407022
PrefabInstance:
  m_ObjectHideFlags: 0
  serializedVersion: 2
  m_Modification:
    m_TransformParent: {fileID: 0}
    m_Modifications:
    - target: {fileID: 100000, guid: b36dbcc8ef8059c4a9c8f753d6b0350b, type: 3}
      propertyPath: m_IsActive
      value: 1
      objectReference: {fileID: 0}
    - target: {fileID: 100000, guid: b36dbcc8ef8059c4a9c8f753d6b0350b, type: 3}
      propertyPath: m_Name
      value: Drawer (1)
      objectReference: {fileID: 0}
    - target: {fileID: 400000, guid: b36dbcc8ef8059c4a9c8f753d6b0350b, type: 3}
      propertyPath: m_LocalPosition.x
      value: 18.35
      objectReference: {fileID: 0}
    - target: {fileID: 400000, guid: b36dbcc8ef8059c4a9c8f753d6b0350b, type: 3}
      propertyPath: m_LocalPosition.y
      value: 0.08
      objectReference: {fileID: 0}
    - target: {fileID: 400000, guid: b36dbcc8ef8059c4a9c8f753d6b0350b, type: 3}
      propertyPath: m_LocalPosition.z
      value: -9.92
      objectReference: {fileID: 0}
    - target: {fileID: 400000, guid: b36dbcc8ef8059c4a9c8f753d6b0350b, type: 3}
      propertyPath: m_LocalRotation.x
      value: 0
      objectReference: {fileID: 0}
    - target: {fileID: 400000, guid: b36dbcc8ef8059c4a9c8f753d6b0350b, type: 3}
      propertyPath: m_LocalRotation.y
      value: -0.7071068
      objectReference: {fileID: 0}
    - target: {fileID: 400000, guid: b36dbcc8ef8059c4a9c8f753d6b0350b, type: 3}
      propertyPath: m_LocalRotation.z
      value: 0
      objectReference: {fileID: 0}
    - target: {fileID: 400000, guid: b36dbcc8ef8059c4a9c8f753d6b0350b, type: 3}
      propertyPath: m_LocalRotation.w
      value: 0.7071068
      objectReference: {fileID: 0}
    - target: {fileID: 400000, guid: b36dbcc8ef8059c4a9c8f753d6b0350b, type: 3}
      propertyPath: m_RootOrder
      value: 27
      objectReference: {fileID: 0}
    - target: {fileID: 400000, guid: b36dbcc8ef8059c4a9c8f753d6b0350b, type: 3}
      propertyPath: m_LocalEulerAnglesHint.y
      value: -90
      objectReference: {fileID: 0}
    - target: {fileID: 400000, guid: b36dbcc8ef8059c4a9c8f753d6b0350b, type: 3}
      propertyPath: m_LocalScale.z
      value: 80
      objectReference: {fileID: 0}
    m_RemovedComponents: []
  m_SourcePrefab: {fileID: 100100000, guid: b36dbcc8ef8059c4a9c8f753d6b0350b, type: 3}
--- !u!1001 &1939111623
PrefabInstance:
  m_ObjectHideFlags: 0
  serializedVersion: 2
  m_Modification:
    m_TransformParent: {fileID: 0}
    m_Modifications:
    - target: {fileID: 4000013018713374, guid: 21e32de74bee7044fbd8655ea8eeda74, type: 3}
      propertyPath: m_LocalPosition.x
      value: 8.29
      objectReference: {fileID: 0}
    - target: {fileID: 4000013018713374, guid: 21e32de74bee7044fbd8655ea8eeda74, type: 3}
      propertyPath: m_LocalPosition.y
      value: 3.93
      objectReference: {fileID: 0}
    - target: {fileID: 4000013018713374, guid: 21e32de74bee7044fbd8655ea8eeda74, type: 3}
      propertyPath: m_LocalPosition.z
      value: -6.67
      objectReference: {fileID: 0}
    - target: {fileID: 4000013018713374, guid: 21e32de74bee7044fbd8655ea8eeda74, type: 3}
      propertyPath: m_LocalRotation.x
      value: 0
      objectReference: {fileID: 0}
    - target: {fileID: 4000013018713374, guid: 21e32de74bee7044fbd8655ea8eeda74, type: 3}
      propertyPath: m_LocalRotation.y
      value: 1
      objectReference: {fileID: 0}
    - target: {fileID: 4000013018713374, guid: 21e32de74bee7044fbd8655ea8eeda74, type: 3}
      propertyPath: m_LocalRotation.z
      value: 0
      objectReference: {fileID: 0}
    - target: {fileID: 4000013018713374, guid: 21e32de74bee7044fbd8655ea8eeda74, type: 3}
      propertyPath: m_LocalRotation.w
      value: 0
      objectReference: {fileID: 0}
    - target: {fileID: 4000013018713374, guid: 21e32de74bee7044fbd8655ea8eeda74, type: 3}
      propertyPath: m_RootOrder
      value: 26
      objectReference: {fileID: 0}
    m_RemovedComponents: []
  m_SourcePrefab: {fileID: 100100000, guid: 21e32de74bee7044fbd8655ea8eeda74, type: 3}
--- !u!1 &2021906124
GameObject:
  m_ObjectHideFlags: 0
  m_CorrespondingSourceObject: {fileID: 0}
  m_PrefabInstance: {fileID: 0}
  m_PrefabAsset: {fileID: 0}
  serializedVersion: 6
  m_Component:
  - component: {fileID: 2021906128}
  - component: {fileID: 2021906127}
  - component: {fileID: 2021906126}
  - component: {fileID: 2021906125}
  m_Layer: 0
  m_Name: Wall
  m_TagString: Untagged
  m_Icon: {fileID: 0}
  m_NavMeshLayer: 0
  m_StaticEditorFlags: 0
  m_IsActive: 1
--- !u!23 &2021906125
MeshRenderer:
  m_ObjectHideFlags: 0
  m_CorrespondingSourceObject: {fileID: 0}
  m_PrefabInstance: {fileID: 0}
  m_PrefabAsset: {fileID: 0}
  m_GameObject: {fileID: 2021906124}
  m_Enabled: 1
  m_CastShadows: 0
  m_ReceiveShadows: 1
  m_DynamicOccludee: 1
  m_MotionVectors: 1
  m_LightProbeUsage: 1
  m_ReflectionProbeUsage: 1
  m_RenderingLayerMask: 1
  m_RendererPriority: 0
  m_Materials:
  - {fileID: 10303, guid: 0000000000000000f000000000000000, type: 0}
  m_StaticBatchInfo:
    firstSubMesh: 0
    subMeshCount: 0
  m_StaticBatchRoot: {fileID: 0}
  m_ProbeAnchor: {fileID: 0}
  m_LightProbeVolumeOverride: {fileID: 0}
  m_ScaleInLightmap: 1
  m_PreserveUVs: 1
  m_IgnoreNormalsForChartDetection: 0
  m_ImportantGI: 0
  m_StitchLightmapSeams: 0
  m_SelectedEditorRenderState: 3
  m_MinimumChartSize: 4
  m_AutoUVMaxDistance: 0.5
  m_AutoUVMaxAngle: 89
  m_LightmapParameters: {fileID: 0}
  m_SortingLayerID: 0
  m_SortingLayer: 0
  m_SortingOrder: 0
--- !u!65 &2021906126
BoxCollider:
  m_ObjectHideFlags: 0
  m_CorrespondingSourceObject: {fileID: 0}
  m_PrefabInstance: {fileID: 0}
  m_PrefabAsset: {fileID: 0}
  m_GameObject: {fileID: 2021906124}
  m_Material: {fileID: 0}
  m_IsTrigger: 0
  m_Enabled: 1
  serializedVersion: 2
  m_Size: {x: 1, y: 1, z: 1}
  m_Center: {x: 0, y: 0, z: 0}
--- !u!33 &2021906127
MeshFilter:
  m_ObjectHideFlags: 0
  m_CorrespondingSourceObject: {fileID: 0}
  m_PrefabInstance: {fileID: 0}
  m_PrefabAsset: {fileID: 0}
  m_GameObject: {fileID: 2021906124}
  m_Mesh: {fileID: 10202, guid: 0000000000000000e000000000000000, type: 0}
--- !u!4 &2021906128
Transform:
  m_ObjectHideFlags: 0
  m_CorrespondingSourceObject: {fileID: 0}
  m_PrefabInstance: {fileID: 0}
  m_PrefabAsset: {fileID: 0}
  m_GameObject: {fileID: 2021906124}
  m_LocalRotation: {x: 0, y: 0, z: 0, w: 1}
  m_LocalPosition: {x: 11.93, y: 1, z: -5.82}
  m_LocalScale: {x: 15, y: 8, z: 0.52499956}
  m_Children: []
  m_Father: {fileID: 0}
  m_RootOrder: 31
  m_LocalEulerAnglesHint: {x: 0, y: 0, z: 0}
--- !u!1001 &2111095045
PrefabInstance:
  m_ObjectHideFlags: 0
  serializedVersion: 2
  m_Modification:
    m_TransformParent: {fileID: 0}
    m_Modifications:
    - target: {fileID: 4000011709630572, guid: d7d1b586e081e1b449b95c91f43f6281, type: 3}
      propertyPath: m_LocalPosition.x
      value: 13.44
      objectReference: {fileID: 0}
    - target: {fileID: 4000011709630572, guid: d7d1b586e081e1b449b95c91f43f6281, type: 3}
      propertyPath: m_LocalPosition.y
      value: 3.6
      objectReference: {fileID: 0}
    - target: {fileID: 4000011709630572, guid: d7d1b586e081e1b449b95c91f43f6281, type: 3}
      propertyPath: m_LocalPosition.z
      value: 11.17
      objectReference: {fileID: 0}
    - target: {fileID: 4000011709630572, guid: d7d1b586e081e1b449b95c91f43f6281, type: 3}
      propertyPath: m_LocalRotation.x
      value: 0
      objectReference: {fileID: 0}
    - target: {fileID: 4000011709630572, guid: d7d1b586e081e1b449b95c91f43f6281, type: 3}
      propertyPath: m_LocalRotation.y
      value: 1
      objectReference: {fileID: 0}
    - target: {fileID: 4000011709630572, guid: d7d1b586e081e1b449b95c91f43f6281, type: 3}
      propertyPath: m_LocalRotation.z
      value: 0
      objectReference: {fileID: 0}
    - target: {fileID: 4000011709630572, guid: d7d1b586e081e1b449b95c91f43f6281, type: 3}
      propertyPath: m_LocalRotation.w
      value: 0
      objectReference: {fileID: 0}
    - target: {fileID: 4000011709630572, guid: d7d1b586e081e1b449b95c91f43f6281, type: 3}
      propertyPath: m_RootOrder
      value: 19
      objectReference: {fileID: 0}
    m_RemovedComponents: []
  m_SourcePrefab: {fileID: 100100000, guid: d7d1b586e081e1b449b95c91f43f6281, type: 3}
--- !u!1 &2138410529
GameObject:
  m_ObjectHideFlags: 0
  m_CorrespondingSourceObject: {fileID: 0}
  m_PrefabInstance: {fileID: 0}
  m_PrefabAsset: {fileID: 0}
  serializedVersion: 6
  m_Component:
  - component: {fileID: 2138410531}
  - component: {fileID: 2138410530}
  m_Layer: 0
  m_Name: Directional Light
  m_TagString: Untagged
  m_Icon: {fileID: 0}
  m_NavMeshLayer: 0
  m_StaticEditorFlags: 0
  m_IsActive: 1
--- !u!108 &2138410530
Light:
  m_ObjectHideFlags: 0
  m_CorrespondingSourceObject: {fileID: 0}
  m_PrefabInstance: {fileID: 0}
  m_PrefabAsset: {fileID: 0}
  m_GameObject: {fileID: 2138410529}
  m_Enabled: 1
  serializedVersion: 8
  m_Type: 1
  m_Color: {r: 1, g: 0.95686275, b: 0.8392157, a: 1}
  m_Intensity: 1
  m_Range: 10
  m_SpotAngle: 30
  m_CookieSize: 10
  m_Shadows:
    m_Type: 2
    m_Resolution: -1
    m_CustomResolution: -1
    m_Strength: 0.88
    m_Bias: 0.05
    m_NormalBias: 0.4
    m_NearPlane: 0.2
  m_Cookie: {fileID: 0}
  m_DrawHalo: 0
  m_Flare: {fileID: 0}
  m_RenderMode: 0
  m_CullingMask:
    serializedVersion: 2
    m_Bits: 4294967295
  m_Lightmapping: 4
  m_LightShadowCasterMode: 0
  m_AreaSize: {x: 1, y: 1}
  m_BounceIntensity: 1
  m_ColorTemperature: 6570
  m_UseColorTemperature: 0
  m_ShadowRadius: 0
  m_ShadowAngle: 0
--- !u!4 &2138410531
Transform:
  m_ObjectHideFlags: 0
  m_CorrespondingSourceObject: {fileID: 0}
  m_PrefabInstance: {fileID: 0}
  m_PrefabAsset: {fileID: 0}
  m_GameObject: {fileID: 2138410529}
  m_LocalRotation: {x: 0.40821788, y: -0.23456968, z: 0.10938163, w: 0.8754261}
  m_LocalPosition: {x: 0, y: 3, z: 0}
  m_LocalScale: {x: 1, y: 1, z: 1}
  m_Children: []
  m_Father: {fileID: 0}
  m_RootOrder: 1
  m_LocalEulerAnglesHint: {x: 50, y: -30, z: 0}
